R pour ma grand-mère - 2 Une introduction en 3 minutes
…
2  Une introduction en 3 minutes

Le bloc de code ci-dessous combine tous les aspects que nous allons aborder dans ce document : utilisation de packages, du pipe %>%, préparation de données issues d’un tableau, production et customisation d’un graphe, création d’une fonction, calculs combinés sur listes de données, etc.

# dependencies
library(tidyverse)

# data tidying
iris2 <- iris %>% 
  as_tibble() %>% 
  select(pl=Petal.Length, pw=Petal.Width, sp=Species)
iris2

# A tibble: 150 × 3
      pl    pw sp    
   <dbl> <dbl> <fct> 
 1   1.4   0.2 setosa
 2   1.4   0.2 setosa
 3   1.3   0.2 setosa
 4   1.5   0.2 setosa
 5   1.4   0.2 setosa
 6   1.7   0.4 setosa
 7   1.4   0.3 setosa
 8   1.5   0.2 setosa
 9   1.4   0.2 setosa
10   1.5   0.1 setosa
# ℹ 140 more rows
…
