R pour ma grand-mère - 10 Graphiques avec ggplot2
…
10.2 Un premier graphe

ggplot2 travaille sur des data.frames (ou des tibbles mais c’est la même chose). Tout jeu de données qui n’est pas un data.frame sera converti ou tenté de l’être avec fortify. Le plus simple pour ne pas avoir de surprises étant de convertir vos données en un data.frame en bonne et due forme, vous-mêmes.

Nous allons utiliser iris qui est déjà un data.frame mais que nous allons, pour la cosmétique, convertir en tibble et en renommer les colonnes

library(tidyverse)

iris2 <- iris %>% 
  as_tibble() %>% 
  rename(pl=Petal.Length, pw=Petal.Width,
         sl=Sepal.Length, sw=Sepal.Width, sp=Species)
iris2 # iris, as tibble and with more compact column names

# A tibble: 150 × 5
      sl    sw    pl    pw sp    
   <dbl> <dbl> <dbl> <dbl> <fct> 
 1   5.1   3.5   1.4   0.2 setosa
 2   4.9   3     1.4   0.2 setosa
 3   4.7   3.2   1.3   0.2 setosa
 4   4.6   3.1   1.5   0.2 setosa
 5   5     3.6   1.4   0.2 setosa
 6   5.4   3.9   1.7   0.4 setosa
 7   4.6   3.4   1.4   0.3 setosa
 8   5     3.4   1.5   0.2 setosa
 9   4.4   2.9   1.4   0.2 setosa
10   4.9   3.1   1.5   0.1 setosa
# ℹ 140 more rows
…
Et voilà un autre jeu de données, avec un peu de bruit gaussien pour tout le monde :

iris_bis <- iris2 %>% mutate(across(c(pl, pw), ~.x+rnorm(.x, sd=0.5)))
iris_bis

# A tibble: 150 × 6
      sl    sw    pl      pw sp     session
   <dbl> <dbl> <dbl>   <dbl> <fct>  <fct>  
 1   5.1   3.5 1.05   0.247  setosa A      
 2   4.9   3   1.53   0.621  setosa A      
 3   4.7   3.2 1.28   0.167  setosa A      
 4   4.6   3.1 1.93   0.830  setosa A      
 5   5     3.6 0.972 -0.917  setosa A      
 6   5.4   3.9 1.47  -0.410  setosa A      
 7   4.6   3.4 1.38   0.667  setosa A      
 8   5     3.4 1.40   0.861  setosa A      
 9   4.4   2.9 0.997  0.0324 setosa A      
10   4.9   3.1 2.01  -0.285  setosa A      
# ℹ 140 more rows
…
