R pour ma grand-mère - 2 Une introduction en 3 minutes
…
Ceci étant, même si vous n’avez jamais vu de code R en action, ces commandes ainsi que les commentaires, précédés d’un # devraient être raisonnablement compréhensibles. Admirez la beauté du R “moderne”!

# dependencies
library(tidyverse)

# data tidying
# we will use the famous iris dataset
iris2 <- iris %>% 
  as_tibble() %>% 
  # only keep columns of interest
  select(pl=Petal.Length, pw=Petal.Width, sp=Species)
# let's print in on the console
iris2

# A tibble: 150 × 3
      pl    pw sp    
   <dbl> <dbl> <fct> 
 1   1.4   0.2 setosa
 2   1.4   0.2 setosa
 3   1.3   0.2 setosa
 4   1.5   0.2 setosa
 5   1.4   0.2 setosa
 6   1.7   0.4 setosa
 7   1.4   0.3 setosa
 8   1.5   0.2 setosa
 9   1.4   0.2 setosa
10   1.5   0.1 setosa
# ℹ 140 more rows
…
